Using seplyr to Program Over dplyr
…
## [1] '0.8.5'

colnames(starwars)

##  [1] "name"       "height"     "mass"       "hair_color" "skin_color"
##  [6] "eye_color"  "birth_year" "gender"     "homeworld"  "species"   
## [11] "films"      "vehicles"   "starships"

starwars %>%
  group_by(homeworld) %>%
  summarise(mean_height = mean(height, na.rm = TRUE),
            mean_mass = mean(mass, na.rm = TRUE),
            count = n()) 

## # A tibble: 49 x 4
##    homeworld      mean_height mean_mass count
##    <chr>                <dbl>     <dbl> <int>
##  1 Alderaan              176.      64       3
##  2 Aleen Minor            79       15       1
##  3 Bespin                175       79       1
##  4 Bestine IV            180      110       1
##  5 Cato Neimoidia        191       90       1
##  6 Cerea                 198       82       1
##  7 Champala              196      NaN       1
##  8 Chandrila             150      NaN       1
##  9 Concord Dawn          183       79       1
## 10 Corellia              175       78.5     2
## # … with 39 more rows
…
Convert sequences of expressions (such as in the summarize()) to explicit vectors by adding the “c()” notation.

Replace “=” in expressions with “:=”.

Our converted code looks like the following.

library("seplyr")

starwars %>%
  group_by_se("homeworld") %>%
  summarize_se(c("mean_height" := "mean(height, na.rm = TRUE)",
                 "mean_mass" := "mean(mass, na.rm = TRUE)",
                 "count" := "n()"))

## # A tibble: 49 x 4
##    homeworld      mean_height mean_mass count
##    <chr>                <dbl>     <dbl> <int>
##  1 Alderaan              176.      64       3
##  2 Aleen Minor            79       15       1
##  3 Bespin                175       79       1
##  4 Bestine IV            180      110       1
##  5 Cato Neimoidia        191       90       1
##  6 Cerea                 198       82       1
##  7 Champala              196      NaN       1
##  8 Chandrila             150      NaN       1
##  9 Concord Dawn          183       79       1
## 10 Corellia              175       78.5     2
## # … with 39 more rows
…
starwars %>% 
  grouped_mean(grouping_variables = c("eye_color", "skin_color"),
               value_variables = c("mass", "birth_year"))

## # A tibble: 53 x 5
##    eye_color skin_color       mean_mass mean_birth_year count
##    <chr>     <chr>                <dbl>           <dbl> <int>
##  1 black     green                 80.5            44       2
##  2 black     grey                  78.7           NaN       4
##  3 black     none                 NaN             NaN       1
##  4 black     orange                80              22       1
##  5 black     red, blue, white      57             NaN       1
##  6 black     white, blue          NaN             NaN       1
##  7 blue      blue                 NaN             NaN       1
##  8 blue      brown                136             NaN       1
##  9 blue      dark                  50             NaN       1
## 10 blue      fair                  90              62.6    10
## # … with 43 more rows
…
packageVersion("rlang")

## [1] '0.4.5'

packageVersion("tidyselect")

## [1] '1.0.0'

my_var <- "homeworld"

starwars %>%
  group_by(.data[[my_var]]) %>%
  summarise_at(vars(height:mass), mean, na.rm = TRUE)

## # A tibble: 49 x 3
##    homeworld      height  mass
##    <chr>           <dbl> <dbl>
##  1 Alderaan         176.  64  
##  2 Aleen Minor       79   15  
##  3 Bespin           175   79  
##  4 Bestine IV       180  110  
##  5 Cato Neimoidia   191   90  
##  6 Cerea            198   82  
##  7 Champala         196  NaN  
##  8 Chandrila        150  NaN  
##  9 Concord Dawn     183   79  
## 10 Corellia         175   78.5
## # … with 39 more rows
…
## # A tibble: 1 x 3
##   `"homeworld"` height  mass
##   <chr>          <dbl> <dbl>
## 1 homeworld       174.  97.3

# correct, or at least appears to work
starwars %>%
  group_by(!!rlang::sym(my_var)) %>%
  summarise_at(vars(height:mass), mean, na.rm = TRUE)

## # A tibble: 49 x 3
##    homeworld      height  mass
##    <chr>           <dbl> <dbl>
##  1 Alderaan         176.  64  
##  2 Aleen Minor       79   15  
##  3 Bespin           175   79  
##  4 Bestine IV       180  110  
##  5 Cato Neimoidia   191   90  
##  6 Cerea            198   82  
##  7 Champala         196  NaN  
##  8 Chandrila        150  NaN  
##  9 Concord Dawn     183   79  
## 10 Corellia         175   78.5
## # … with 39 more rows

# correct, or at least appears to work
starwars %>%
  group_by(.data[[!!my_var]]) %>%
  summarise_at(vars(height:mass), mean, na.rm = TRUE)

## # A tibble: 49 x 3
##    homeworld      height  mass
##    <chr>           <dbl> <dbl>
##  1 Alderaan         176.  64  
##  2 Aleen Minor       79   15  
##  3 Bespin           175   79  
##  4 Bestine IV       180  110  
##  5 Cato Neimoidia   191   90  
##  6 Cerea            198   82  
##  7 Champala         196  NaN  
##  8 Chandrila        150  NaN  
##  9 Concord Dawn     183   79  
## 10 Corellia         175   78.5
## # … with 39 more rows

# errors-out
starwars %>%
  group_by(.data[[!!rlang::sym(my_var)]]) %>%
  summarise_at(vars(height:mass), mean, na.rm = TRUE)

## # A tibble: 49 x 3
##    homeworld      height  mass
##    <chr>           <dbl> <dbl>
##  1 Alderaan         176.  64  
##  2 Aleen Minor       79   15  
##  3 Bespin           175   79  
##  4 Bestine IV       180  110  
##  5 Cato Neimoidia   191   90  
##  6 Cerea            198   82  
##  7 Champala         196  NaN  
##  8 Chandrila        150  NaN  
##  9 Concord Dawn     183   79  
## 10 Corellia         175   78.5
## # … with 39 more rows
…
## # A tibble: 2 x 1
##   my_var
##    <int>
## 1      1
## 2      2

# original official example code now errors-out
starwars_plus %>%
  group_by(.data[[my_var]]) %>%
  summarise_at(vars(height:mass), mean, na.rm = TRUE)

## # A tibble: 49 x 3
##    homeworld      height  mass
##    <chr>           <dbl> <dbl>
##  1 Alderaan         176.  64  
##  2 Aleen Minor       79   15  
##  3 Bespin           175   79  
##  4 Bestine IV       180  110  
##  5 Cato Neimoidia   191   90  
##  6 Cerea            198   82  
##  7 Champala         196  NaN  
##  8 Chandrila        150  NaN  
##  9 Concord Dawn     183   79  
## 10 Corellia         175   78.5
## # … with 39 more rows
…
